浜松医科大学講義
…
#βの値を変数に入れて決めておく
beta0 <- 20
beta1 <- 3

#ついでにデータの個数もnという変数に入れて決めておく
n <- 1000

set.seed(12345) #ランダムさを固定する

#データの作成。X1はrunif()を利用して一様分布で適当に入れる
d <- tibble(x1 = runif(n,0,10))

d

# A tibble: 1,000 × 1
      x1
   <dbl>
 1  7.21
 2  8.76
 3  7.61
 4  8.86
 5  4.56
 6  1.66
 7  3.25
 8  5.09
 9  7.28
10  9.90
# … with 990 more rows
# ℹ Use `print(n = ...)` to see more rows
…
ただの直線になるので、\(\epsilon\)による残差（ズレ）を入れてあげます。 このとき、残差は正規分布するランダムな数であることが重回帰分析では必要なので、rnorm(生成するデータの数、平均、標準偏差)として設定してあげます。

次のコードで、epsilon列にrnormで作成した残差の数字が入っており、y列は、x1列とepsilon列の値を使って、事前に作成したbeta0とbeta1変数の数字を利用して計算していること、わかるでしょうか？

d <- d |> 
  mutate(epsilon = rnorm(n,0,10)) |> 
  mutate(y = beta0 + beta1*x1 + epsilon)

d

# A tibble: 1,000 × 3
      x1     y epsilon
   <dbl> <dbl>   <dbl>
 1  7.21 58.4   16.8  
 2  8.76 47.1    0.795
 3  7.61 34.3   -8.56 
 4  8.86 38.8   -7.79 
 5  4.56 29.9   -3.81 
 6  1.66  6.02 -19.0  
 7  3.25 29.0   -0.718
 8  5.09 25.0  -10.3  
 9  7.28 48.5    6.71 
10  9.90 46.1   -3.61 
# … with 990 more rows
# ℹ Use `print(n = ...)` to see more rows
…
答えの例：

set.seed(12345) #これは、ランダムさを固定するためのもので皆さんには必要ありません
n <- 30
d <- tibble(x1 = runif(n, 0, 10),
            x2 = runif(n, 0, 10),
            x3 = runif(n, 0, 10))

d <- d |> 
  mutate(epsilon = rnorm(n, 0, 10)) |> 
  mutate(y = 20 + x1 + 2*x2 + 3*x3 + epsilon)

d

# A tibble: 30 × 5
      x1     x2    x3 epsilon     y
   <dbl>  <dbl> <dbl>   <dbl> <dbl>
 1  7.21 7.93    7.92  14.6    81.4
 2  8.76 0.0599  2.59 -14.1    22.5
 3  7.61 1.88    9.86   5.67   66.6
 4  8.86 6.82    7.57   5.83   71.0
 5  4.56 3.70    9.80 -13.1    48.3
 6  1.66 3.62    2.19  -5.40   30.1
 7  3.25 8.69    9.49  19.5    88.6
 8  5.09 9.04    1.49   0.536  48.2
 9  7.28 6.17    6.00   3.52   61.2
10  9.90 1.34    9.46  -6.71   54.3
# … with 20 more rows
# ℹ Use `print(n = ...)` to see more rows
…
  # 2 分析の実施
  model <- lm(y~x1+x2+x3, d)

  # 3 結果の保存
  citable <- confint(model) |> 
    as_tibble(rownames = "variable")
  
  return(citable)
})

実施した結果、４行の結果が1000回、4000行のデータになっています。

result　# 結果が毎回少しずつ違うのを確認してください。

# A tibble: 4,000 × 3
   variable    `2.5 %` `97.5 %`
   <chr>         <dbl>    <dbl>
 1 (Intercept)  -1.36     28.2 
 2 x1           -0.623     2.63
 3 x2            0.908     4.42
 4 x3            1.80      4.88
 5 (Intercept)  11.1      34.1 
 6 x1           -0.241     3.00
 7 x2           -0.795     2.56
 8 x3            1.06      4.78
 9 (Intercept)  16.1      50.4 
10 x1           -1.84      1.04
# … with 3,990 more rows
# ℹ Use `print(n = ...)` to see more rows
…
